{
  "modules": [
    {
      "name": "com.yuriy.examples.TestModule1",
      "parameters": {
        "module1_receive_key": "key1",
        "module2_receive_key": "key2",
        "test_float": -1e-5,
        "test_bool": true
      }
    },
    {
      "name": "com.yuriy.examples.TestModule2",
      "parameters": {
        "module2_receive_key": "key2",
        "module1_receive_key": "key1",
        "data_key": "data"
      }
    },
    {
      "name": "com.yuriy.net.Listener",
      "parameters": {
        "addr": {
          "ip": "localhost",
          "port": 4050
        }
      }
    },
    {
      "name": "com.yuriy.net.Broadcaster",
      "parameters": {
        "keys": ["atomics"],
        "addrs": [{"ip": "localhost", "port": 4050}],
        "period": 500
      }
    }
  ]
}
